Statistical Methods
…
You’ll likely see a message about functions being masked. This implies that one of the functions just loaded has a function under the same name as a function that already exists. If you type help(filter), R will now give you an option of which filter to look at. R uses the most recently loaded function and “masks” the old ones. You can access specific package’s functions using ::. This allows you to call functions without loading a full library.

readr::read_csv("https://www4.stat.ncsu.edu/~online/datasets/neuralgia.csv")

## Parsed with column specification:
## cols(
##   Treatment = col_character(),
##   Sex = col_character(),
##   Age = col_double(),
##   Duration = col_double(),
##   Pain = col_character()
## )

## # A tibble: 60 x 5
##   Treatment Sex     Age Duration Pain 
##   <chr>     <chr> <dbl>    <dbl> <chr>
## 1 P         F        68        1 No   
## 2 B         M        74       16 No   
## 3 P         F        67       30 No   
## 4 P         M        66       26 Yes  
## 5 B         F        67       28 No   
## # ... with 55 more rows
…
## Parsed with column specification:
## cols(
##   Treatment = col_character(),
##   Sex = col_character(),
##   Age = col_double(),
##   Duration = col_double(),
##   Pain = col_character()
## )

You can see that the package displays a bit of information about how the data was parsed.

neuralgiaData

## # A tibble: 60 x 5
##   Treatment Sex     Age Duration Pain 
##   <chr>     <chr> <dbl>    <dbl> <chr>
## 1 P         F        68        1 No   
## 2 B         M        74       16 No   
## 3 P         F        67       30 No   
## 4 P         M        66       26 Yes  
## 5 B         F        67       28 No   
## # ... with 55 more rows

You’ll also notice the fancy printing. This gives a quick check for the column type you have, which is a basic data validation step. The tidyverse has a special class of data frames called tibbles.

class(neuralgiaData)

## [1] "spec_tbl_df" "tbl_df"      "tbl"         "data.frame"

The behavior of tibbles is slightly different than that of a standard data frame. One is the printing method. The other major difference is that tibbles don’t simplify.

neuralgiaData[,1]

## # A tibble: 60 x 1
##   Treatment
##   <chr>    
## 1 P        
## 2 B        
## 3 P        
## 4 P        
## 5 B        
## # ... with 55 more rows
…
Next, let’s read in the tab delimited file ‘crabs.txt’. Since this is tab delimited we’ll use read_tsv.

read_tsv("https://www4.stat.ncsu.edu/~online/datasets/crabs.txt")

## Parsed with column specification:
## cols(
##   color = col_double(),
##   spine = col_double(),
##   width = col_double(),
##   satell = col_double(),
##   weight = col_double(),
##   y = col_double()
## )

## # A tibble: 173 x 6
##   color spine width satell weight     y
##   <dbl> <dbl> <dbl>  <dbl>  <dbl> <dbl>
## 1     3     3  28.3      8   3050     1
## 2     4     3  22.5      0   1550     0
## 3     2     1  26        9   2300     1
## 4     4     3  24.8      0   2100     0
## 5     4     3  26        4   2600     1
## # ... with 168 more rows
…
read_delim("https://www4.stat.ncsu.edu/~online/datasets/umps2012.txt", delim = ">",
           col_names = c("Year", "Month", "Day", "Home", "Away", "HPUmpire"))

## Parsed with column specification:
## cols(
##   Year = col_double(),
##   Month = col_double(),
##   Day = col_double(),
##   Home = col_character(),
##   Away = col_character(),
##   HPUmpire = col_character()
## )

## # A tibble: 2,359 x 6
##    Year Month   Day Home  Away  HPUmpire        
##   <dbl> <dbl> <dbl> <chr> <chr> <chr>           
## 1  2012     4    12 MIN   LAA   D.J. Reyburn    
## 2  2012     4    12 SD    ARI   Marty Foster    
## 3  2012     4    12 WSH   CIN   Mike Everitt    
## 4  2012     4    12 PHI   MIA   Jeff Nelson     
## 5  2012     4    12 CHC   MIL   Fieldin Culbreth
## # ... with 2,354 more rows
…
Let’s read in the censusEd.xlsx file.This can be done with the read_excel() from readxl package! This funcion reads in both xls and xlsx files. It detects the format from the file extension given in the path name. One issue is that excel files cannot be read from the web so they do need to be downloaded locally.

#install package if necessary
library(readxl)

## Warning: package 'readxl' was built under R version 3.6.2

#reads first sheet by default
edData <- read_excel("../../datasets/censusEd.xlsx")
edData

## # A tibble: 3,198 x 42
##   Area_name STCOU EDU010187F EDU010187D EDU010187N1 EDU010187N2 EDU010188F
##   <chr>     <chr>      <dbl>      <dbl> <chr>       <chr>            <dbl>
## 1 UNITED S~ 00000          0   40024299 0000        0000                 0
## 2 ALABAMA   01000          0     733735 0000        0000                 0
## 3 Autauga,~ 01001          0       6829 0000        0000                 0
## 4 Baldwin,~ 01003          0      16417 0000        0000                 0
## 5 Barbour,~ 01005          0       5071 0000        0000                 0
## # ... with 3,193 more rows, and 35 more variables: EDU010188D <dbl>,
## #   EDU010188N1 <chr>, EDU010188N2 <chr>, EDU010189F <dbl>, EDU010189D <dbl>,
## #   EDU010189N1 <chr>, EDU010189N2 <chr>, EDU010190F <dbl>, EDU010190D <dbl>,
## #   EDU010190N1 <chr>, EDU010190N2 <chr>, EDU010191F <dbl>, EDU010191D <dbl>,
## #   EDU010191N1 <chr>, EDU010191N2 <chr>, EDU010192F <dbl>, EDU010192D <dbl>,
## #   EDU010192N1 <chr>, EDU010192N2 <chr>, EDU010193F <dbl>, EDU010193D <dbl>,
## #   EDU010193N1 <chr>, EDU010193N2 <chr>, EDU010194F <dbl>, EDU010194D <dbl>,
## #   EDU010194N1 <chr>, EDU010194N2 <chr>, EDU010195F <dbl>, EDU010195D <dbl>,
## #   EDU010195N1 <chr>, EDU010195N2 <chr>, EDU010196F <dbl>, EDU010196D <dbl>,
…
excel_sheets("../../datasets/censusEd.xlsx")

##  [1] "EDU01A" "EDU01B" "EDU01C" "EDU01D" "EDU01E" "EDU01F" "EDU01G" "EDU01H"
##  [9] "EDU01I" "EDU01J"

read_excel("../../datasets/censusEd.xlsx", sheet = "EDU01D")

There are also ways to specify which cells to read in with the range = argument. You can select cells that are contiguous only (next to each other).

edData <- read_excel("../../datasets/censusEd.xlsx", sheet = "EDU01A", 
                   range = cell_cols("A:D"))
edData

## # A tibble: 3,198 x 4
##   Area_name     STCOU EDU010187F EDU010187D
##   <chr>         <chr>      <dbl>      <dbl>
## 1 UNITED STATES 00000          0   40024299
## 2 ALABAMA       01000          0     733735
## 3 Autauga, AL   01001          0       6829
## 4 Baldwin, AL   01003          0      16417
## 5 Barbour, AL   01005          0       5071
## # ... with 3,193 more rows

1.3.13 SAS Data

SAS datasets have a file extension of ‘.sas7bdat’. Let’s read in the smoke2003.sas7bdat dataset. This can be done using the read_sas function from the haven package. As .sas7bdat files are pretty structured there aren’t many options to use with this function.

#install if necessary
library(haven)
smokeData <- read_sas("https://www4.stat.ncsu.edu/~online/datasets/smoke2003.sas7bdat")
smokeData

## # A tibble: 443 x 54
##    SEQN SDDSRVYR RIDSTATR RIDEXMON RIAGENDR RIDAGEYR RIDAGEMN RIDAGEEX RIDRETH1
##   <dbl>    <dbl>    <dbl>    <dbl>    <dbl>    <dbl>    <dbl>    <dbl>    <dbl>
## 1 21010        3        2        2        2       52      633      634        3
## 2 21012        3        2        2        1       63      765      766        4
## 3 21048        3        2        1        2       42      504      504        1
## 4 21084        3        2        1        2       57      692      693        3
## 5 21093        3        2        1        2       64      778      778        2
## # ... with 438 more rows, and 45 more variables: RIDRETH2 <dbl>,
## #   DMQMILIT <dbl>, DMDBORN <dbl>, DMDCITZN <dbl>, DMDYRSUS <dbl>,
## #   DMDEDUC3 <dbl>, DMDEDUC2 <dbl>, DMDEDUC <dbl>, DMDSCHOL <dbl>,
## #   DMDMARTL <dbl>, DMDHHSIZ <dbl>, INDHHINC <dbl>, INDFMINC <dbl>,
## #   INDFMPIR <dbl>, RIDEXPRG <dbl>, DMDHRGND <dbl>, DMDHRAGE <dbl>,
## #   DMDHRBRN <dbl>, DMDHREDU <dbl>, DMDHRMAR <dbl>, DMDHSEDU <dbl>,
## #   SIALANG <dbl>, SIAPROXY <dbl>, SIAINTRP <dbl>, FIALANG <dbl>,
## #   FIAPROXY <dbl>, FIAINTRP <dbl>, MIALANG <dbl>, MIAPROXY <dbl>,
## #   MIAINTRP <dbl>, AIALANG <dbl>, WTINT2YR <dbl>, WTMEC2YR <dbl>,
…
spellData <- RCurl::getURL(URL)

This is a reasonably large string of information so we can just look at the first 100 characters using the substr function.

substr(spellData, 1, 100) 

## [1] "[{\"_id\":\"5b74ebd5fb6fc0739646754c\",\"spell\":\"Aberto\",\"type\":\"Charm\",\"effect\":\"opens objects\"},{\"_id\":"

To convert this to a data frame we can use the fromJSON function in the jsonlite package. tbl_df converts the dataframe to a tibble (for printing purposes).

spellDataDF <- jsonlite::fromJSON(spellData)
tbl_df(spellDataDF)

## # A tibble: 151 x 5
##   `_id`                spell          type      effect                     `__v`
##   <chr>                <chr>          <chr>     <chr>                      <int>
## 1 5b74ebd5fb6fc073964~ Aberto         Charm     opens objects                 NA
## 2 5b74ecfa3228320021a~ Accio          Charm     Summons an object              0
## 3 5b74ed2f3228320021a~ Age Line       Enchantm~ Hides things from younger~     0
## 4 5b74ed453228320021a~ Aguamenti      Charm     shoots water from wand         0
## 5 5b74ed583228320021a~ Alarte Ascend~ Spell     shoots things high in the~     0
## # ... with 146 more rows
…
We just looked at using the filter function to subset rows or observations of a dataset. Let’s look at a few more examples. We may only want to return observations from the Batting dataset corresponding to the Pittsburgh Pirates (PIT).

filter(Batting, teamID == "PIT")

## # A tibble: 4,817 x 22
##   playerID yearID stint teamID lgID      G    AB     R     H   X2B   X3B    HR
##   <chr>     <int> <int> <fct>  <fct> <int> <int> <int> <int> <int> <int> <int>
## 1 barklsa~   1887     1 PIT    NL       89   340    44    76    10     4     1
## 2 beeched~   1887     1 PIT    NL       41   169    15    41     8     0     2
## 3 bishobi~   1887     1 PIT    NL        3     9     0     0     0     0     0
## 4 brownto~   1887     1 PIT    NL       47   192    30    47     3     4     0
## 5 carrofr~   1887     1 PIT    NL      102   421    71   138    24    15     6
## # ... with 4,812 more rows, and 10 more variables: RBI <int>, SB <int>,
## #   CS <int>, BB <int>, SO <int>, IBB <int>, HBP <int>, SH <int>, SF <int>,
## #   GIDP <int>

We could use a compound logical to only return Pirate data from the year 2000.

filter(Batting, teamID == "PIT" & yearID == 2000)

## # A tibble: 46 x 22
##   playerID yearID stint teamID lgID      G    AB     R     H   X2B   X3B    HR
##   <chr>     <int> <int> <fct>  <fct> <int> <int> <int> <int> <int> <int> <int>
## 1 anderji~   2000     1 PIT    NL       27    50     5     7     1     0     0
## 2 arroybr~   2000     1 PIT    NL       21    21     2     3     2     0     0
## 3 avenbr01   2000     1 PIT    NL       72   148    18    37    11     0     5
## 4 benjami~   2000     1 PIT    NL       93   233    28    63    18     2     2
## 5 bensokr~   2000     1 PIT    NL       32    65     3     6     2     0     0
## # ... with 41 more rows, and 10 more variables: RBI <int>, SB <int>, CS <int>,
## #   BB <int>, SO <int>, IBB <int>, HBP <int>, SH <int>, SF <int>, GIDP <int>
…
transmute() - create new data frame with created variable(s)

The syntax for these functions is similar to previous. We simply name the new variables after specifying our data set.

mutate(data, newVarName = functionOfData, newVarName2 = functionOfData, ...)

For this section let’s consider a data set on movie ratings from the fivethirtyeight package.

library(fivethirtyeight)

## Warning: package 'fivethirtyeight' was built under R version 3.6.3

fandango

## # A tibble: 146 x 23
##   film   year rottentomatoes rottentomatoes_~ metacritic metacritic_user  imdb
##   <chr> <dbl>          <int>            <int>      <int>           <dbl> <dbl>
## 1 Aven~  2015             74               86         66             7.1   7.8
## 2 Cind~  2015             85               80         67             7.5   7.1
## 3 Ant-~  2015             80               90         64             8.1   7.8
## 4 Do Y~  2015             18               84         22             4.7   5.4
## 5 Hot ~  2015             14               28         29             3.4   5.1
## # ... with 141 more rows, and 16 more variables: fandango_stars <dbl>,
## #   fandango_ratingvalue <dbl>, rt_norm <dbl>, rt_user_norm <dbl>,
## #   metacritic_norm <dbl>, metacritic_user_nom <dbl>, imdb_norm <dbl>,
## #   rt_norm_round <dbl>, rt_user_norm_round <dbl>, metacritic_norm_round <dbl>,
## #   metacritic_user_norm_round <dbl>, imdb_norm_round <dbl>,
## #   metacritic_user_vote_count <int>, imdb_user_vote_count <int>,
## #   fandango_votes <int>, fandango_difference <dbl>

We can add a new variable that is the average of two columns using mutate. Remember to read %>% as ‘then.’

fandango %>% mutate(avgRotten = (rottentomatoes + rottentomatoes_user)/2) %>% 
  select(film, year, avgRotten, everything())

## # A tibble: 146 x 24
##   film   year avgRotten rottentomatoes rottentomatoes_~ metacritic
##   <chr> <dbl>     <dbl>          <int>            <int>      <int>
## 1 Aven~  2015      80               74               86         66
## 2 Cind~  2015      82.5             85               80         67
## 3 Ant-~  2015      85               80               90         64
## 4 Do Y~  2015      51               18               84         22
## 5 Hot ~  2015      21               14               28         29
## # ... with 141 more rows, and 18 more variables: metacritic_user <dbl>,
## #   imdb <dbl>, fandango_stars <dbl>, fandango_ratingvalue <dbl>,
## #   rt_norm <dbl>, rt_user_norm <dbl>, metacritic_norm <dbl>,
## #   metacritic_user_nom <dbl>, imdb_norm <dbl>, rt_norm_round <dbl>,
## #   rt_user_norm_round <dbl>, metacritic_norm_round <dbl>,
## #   metacritic_user_norm_round <dbl>, imdb_norm_round <dbl>,
## #   metacritic_user_vote_count <int>, imdb_user_vote_count <int>,
## #   fandango_votes <int>, fandango_difference <dbl>

More than one variable can be created. Here an average of the normed metacritic scores.

fandango %>% 
  mutate(avgRotten = (rottentomatoes + rottentomatoes_user)/2, 
         avgMeta = (metacritic_norm + metacritic_user_nom)/2) %>%
  select(film, year, avgRotten, avgMeta, everything())

## # A tibble: 146 x 25
##   film   year avgRotten avgMeta rottentomatoes rottentomatoes_~ metacritic
##   <chr> <dbl>     <dbl>   <dbl>          <int>            <int>      <int>
## 1 Aven~  2015      80      3.42             74               86         66
## 2 Cind~  2015      82.5    3.55             85               80         67
## 3 Ant-~  2015      85      3.62             80               90         64
## 4 Do Y~  2015      51      1.72             18               84         22
## 5 Hot ~  2015      21      1.58             14               28         29
## # ... with 141 more rows, and 18 more variables: metacritic_user <dbl>,
## #   imdb <dbl>, fandango_stars <dbl>, fandango_ratingvalue <dbl>,
## #   rt_norm <dbl>, rt_user_norm <dbl>, metacritic_norm <dbl>,
## #   metacritic_user_nom <dbl>, imdb_norm <dbl>, rt_norm_round <dbl>,
## #   rt_user_norm_round <dbl>, metacritic_norm_round <dbl>,
## #   metacritic_user_norm_round <dbl>, imdb_norm_round <dbl>,
## #   metacritic_user_vote_count <int>, imdb_user_vote_count <int>,
## #   fandango_votes <int>, fandango_difference <dbl>

transmute is very similar to mutate except it doesn’t return the original tibble, just the newly created variable(s).

fandango %>% transmute(avgRotten = (rottentomatoes + rottentomatoes_user)/2)

## # A tibble: 146 x 1
##   avgRotten
##       <dbl>
## 1      80  
## 2      82.5
## 3      85  
## 4      51  
## 5      21  
## # ... with 141 more rows

fandango %>% transmute(avgRotten = (rottentomatoes + rottentomatoes_user)/2, 
                       avgMeta = (metacritic_norm + metacritic_user_nom)/2) 

## # A tibble: 146 x 2
##   avgRotten avgMeta
##       <dbl>   <dbl>
## 1      80      3.42
## 2      82.5    3.55
## 3      85      3.62
## 4      51      1.72
## 5      21      1.58
## # ... with 141 more rows

mutate and transmute can also use ‘window’ functions. These are functions that take a vector of values and return another vector of values (see Cheat sheet). For instance we can find the cumulative sum of a column using cumsum.

fandango %>% select(rottentomatoes) %>% mutate(cumulativeSum = cumsum(rottentomatoes))

## # A tibble: 146 x 2
##   rottentomatoes cumulativeSum
##            <int>         <int>
## 1             74            74
## 2             85           159
## 3             80           239
## 4             18           257
## 5             14           271
## # ... with 141 more rows

mutate and transmute can also use some statistical functions to create new variables. Here we add a column representing the mean and standard deviation of the rottentomatoes score.

fandango %>% select(rottentomatoes) %>% 
  mutate(avg = mean(rottentomatoes), sd = sd(rottentomatoes))

## # A tibble: 146 x 3
##   rottentomatoes   avg    sd
##            <int> <dbl> <dbl>
## 1             74  60.8  30.2
## 2             85  60.8  30.2
## 3             80  60.8  30.2
## 4             18  60.8  30.2
## 5             14  60.8  30.2
## # ... with 141 more rows

These statistical quantities are easily found for subgroups of the data using the group_by function. We can group the data set by year and run the same mutate function. Now the mean and standard deviation are found for each year and appended appropriately.

fandango %>% select(year, rottentomatoes) %>% 
  group_by(year) %>% mutate(avg = mean(rottentomatoes), sd = sd(rottentomatoes))

## # A tibble: 146 x 4
## # Groups:   year [2]
##    year rottentomatoes   avg    sd
##   <dbl>          <int> <dbl> <dbl>
## 1  2015             74  58.4  30.3
## 2  2015             85  58.4  30.3
## 3  2015             80  58.4  30.3
## 4  2015             18  58.4  30.3
## 5  2015             14  58.4  30.3
## # ... with 141 more rows
…
Consider the built-in data set airquality. This hasdaily air quality measurements in New York from May (Day 1) to September (Day 153) in 1973.

airquality <- tbl_df(airquality)
airquality

## # A tibble: 153 x 6
##   Ozone Solar.R  Wind  Temp Month   Day
##   <int>   <int> <dbl> <int> <int> <int>
## 1    41     190   7.4    67     5     1
## 2    36     118   8      72     5     2
## 3    12     149  12.6    74     5     3
## 4    18     313  11.5    62     5     4
## 5    NA      NA  14.3    56     5     5
## # ... with 148 more rows
…
ifelse can also easily be used with transmute() or mutate()!

mutate(airquality, status = ifelse(airquality$Wind >= 15, "HighWind",
                                ifelse(airquality$Wind >= 10, "Windy",
                                       ifelse(airquality$Wind >= 6, "LightWind", "Calm")))
)

## # A tibble: 153 x 7
##   Ozone Solar.R  Wind  Temp Month   Day status   
##   <int>   <int> <dbl> <int> <int> <int> <chr>    
## 1    41     190   7.4    67     5     1 LightWind
## 2    36     118   8      72     5     2 LightWind
## 3    12     149  12.6    74     5     3 Windy    
## 4    18     313  11.5    62     5     4 Windy    
## 5    NA      NA  14.3    56     5     5 Windy    
## # ... with 148 more rows
…
