Chapter 26 R Markdown | Statistical Methods
…
is.matrix(c("hello", "world"))

## [1] FALSE

Logical statements

Goal: Subset rows or columns

logical statement - useful for indexing an R object

iris <- tbl_df(iris)
iris

## # A tibble: 150 x 6
##    Sepal.Length Sepal.Width Petal.Length Petal.Width Species extra
##           <dbl>       <dbl>        <dbl>       <dbl> <fct>   <chr>
##  1          5.1         3.5          1.4         0.2 setosa  a    
##  2          4.9         3            1.4         0.2 setosa  a    
##  3          4.7         3.2          1.3         0.2 setosa  a    
##  4          4.6         3.1          1.5         0.2 setosa  a    
##  5          5           3.6          1.4         0.2 setosa  a    
##  6          5.4         3.9          1.7         0.4 setosa  a    
##  7          4.6         3.4          1.4         0.3 setosa  a    
##  8          5           3.4          1.5         0.2 setosa  a    
##  9          4.4         2.9          1.4         0.2 setosa  a    
## 10          4.9         3.1          1.5         0.1 setosa  a    
## # ... with 140 more rows
…
Logical statements

Goal: Subset rows or columns

logical statement - useful for indexing an R object

iris[iris$Species == "setosa", ]

## # A tibble: 50 x 6
##    Sepal.Length Sepal.Width Petal.Length Petal.Width Species extra
##           <dbl>       <dbl>        <dbl>       <dbl> <fct>   <chr>
##  1          5.1         3.5          1.4         0.2 setosa  a    
##  2          4.9         3            1.4         0.2 setosa  a    
##  3          4.7         3.2          1.3         0.2 setosa  a    
##  4          4.6         3.1          1.5         0.2 setosa  a    
##  5          5           3.6          1.4         0.2 setosa  a    
##  6          5.4         3.9          1.7         0.4 setosa  a    
##  7          4.6         3.4          1.4         0.3 setosa  a    
##  8          5           3.4          1.5         0.2 setosa  a    
##  9          4.4         2.9          1.4         0.2 setosa  a    
## 10          4.9         3.1          1.5         0.1 setosa  a    
## # ... with 40 more rows

Logical statements

Goal: Subset rows or columns

logical statement - useful for indexing an R object

Similarly, can use subset function

subset(iris, Species == "setosa")

## # A tibble: 50 x 6
##    Sepal.Length Sepal.Width Petal.Length Petal.Width Species extra
##           <dbl>       <dbl>        <dbl>       <dbl> <fct>   <chr>
##  1          5.1         3.5          1.4         0.2 setosa  a    
##  2          4.9         3            1.4         0.2 setosa  a    
##  3          4.7         3.2          1.3         0.2 setosa  a    
##  4          4.6         3.1          1.5         0.2 setosa  a    
##  5          5           3.6          1.4         0.2 setosa  a    
##  6          5.4         3.9          1.7         0.4 setosa  a    
##  7          4.6         3.4          1.4         0.3 setosa  a    
##  8          5           3.4          1.5         0.2 setosa  a    
##  9          4.4         2.9          1.4         0.2 setosa  a    
## 10          4.9         3.1          1.5         0.1 setosa  a    
## # ... with 40 more rows

dplyr

Goal: Subset rows or columns

logical statement - useful for indexing an R object

Similarly, can use filter from dplyr (installed with tidyverse)

filter(iris, Species == "setosa")

## # A tibble: 50 x 6
##    Sepal.Length Sepal.Width Petal.Length Petal.Width Species extra
##           <dbl>       <dbl>        <dbl>       <dbl> <fct>   <chr>
##  1          5.1         3.5          1.4         0.2 setosa  a    
##  2          4.9         3            1.4         0.2 setosa  a    
##  3          4.7         3.2          1.3         0.2 setosa  a    
##  4          4.6         3.1          1.5         0.2 setosa  a    
##  5          5           3.6          1.4         0.2 setosa  a    
##  6          5.4         3.9          1.7         0.4 setosa  a    
##  7          4.6         3.4          1.4         0.3 setosa  a    
##  8          5           3.4          1.5         0.2 setosa  a    
##  9          4.4         2.9          1.4         0.2 setosa  a    
## 10          4.9         3.1          1.5         0.1 setosa  a    
## # ... with 40 more rows
…
dplyr

Batting <- tbl_df(Batting)
Batting

## # A tibble: 105,861 x 22
##    playerID yearID stint teamID lgID      G    AB     R     H   X2B   X3B    HR
##    <chr>     <int> <int> <fct>  <fct> <int> <int> <int> <int> <int> <int> <int>
##  1 abercda~   1871     1 TRO    NA        1     4     0     0     0     0     0
##  2 addybo01   1871     1 RC1    NA       25   118    30    32     6     0     0
##  3 allisar~   1871     1 CL1    NA       29   137    28    40     4     5     0
##  4 allisdo~   1871     1 WS3    NA       27   133    28    44    10     2     2
##  5 ansonca~   1871     1 RC1    NA       25   120    29    39    11     3     0
##  6 armstbo~   1871     1 FW1    NA       12    49     9    11     2     1     0
##  7 barkeal~   1871     1 RC1    NA        1     4     0     1     0     0     0
##  8 barnero~   1871     1 BS1    NA       31   157    66    63    10     9     0
##  9 barrebi~   1871     1 FW1    NA        1     5     1     1     1     0     0
## 10 barrofr~   1871     1 BS1    NA       18    86    13    13     2     1     0
## # ... with 105,851 more rows, and 10 more variables: RBI <int>, SB <int>,
## #   CS <int>, BB <int>, SO <int>, IBB <int>, HBP <int>, SH <int>, SF <int>,
## #   GIDP <int>

If data read in with haven, readxl, or readr probably in this format!

dplyr

filter() - subset rows

Use filter() to obtain only PIT data

filter(Batting, teamID == "PIT")

## # A tibble: 4,817 x 22
##    playerID yearID stint teamID lgID      G    AB     R     H   X2B   X3B    HR
##    <chr>     <int> <int> <fct>  <fct> <int> <int> <int> <int> <int> <int> <int>
##  1 barklsa~   1887     1 PIT    NL       89   340    44    76    10     4     1
##  2 beeched~   1887     1 PIT    NL       41   169    15    41     8     0     2
##  3 bishobi~   1887     1 PIT    NL        3     9     0     0     0     0     0
##  4 brownto~   1887     1 PIT    NL       47   192    30    47     3     4     0
##  5 carrofr~   1887     1 PIT    NL      102   421    71   138    24    15     6
##  6 colemjo~   1887     1 PIT    NL      115   475    75   139    21    11     2
##  7 dalryab~   1887     1 PIT    NL       92   358    45    76    18     5     2
##  8 fieldjo~   1887     1 PIT    NL       43   164    26    44     9     2     0
##  9 galvipu~   1887     1 PIT    NL       49   193    10    41     7     3     2
## 10 kuehnbi~   1887     1 PIT    NL      102   402    68   120    18    15     1
## # ... with 4,807 more rows, and 10 more variables: RBI <int>, SB <int>,
## #   CS <int>, BB <int>, SO <int>, IBB <int>, HBP <int>, SH <int>, SF <int>,
## #   GIDP <int>

dplyr

filter() - subset rows

Multiple filters

filter(Batting, teamID == "PIT" & yearID == 2000)

## # A tibble: 46 x 22
##    playerID yearID stint teamID lgID      G    AB     R     H   X2B   X3B    HR
##    <chr>     <int> <int> <fct>  <fct> <int> <int> <int> <int> <int> <int> <int>
##  1 anderji~   2000     1 PIT    NL       27    50     5     7     1     0     0
##  2 arroybr~   2000     1 PIT    NL       21    21     2     3     2     0     0
##  3 avenbr01   2000     1 PIT    NL       72   148    18    37    11     0     5
##  4 benjami~   2000     1 PIT    NL       93   233    28    63    18     2     2
##  5 bensokr~   2000     1 PIT    NL       32    65     3     6     2     0     0
##  6 brownad~   2000     1 PIT    NL      104   308    64    97    18     3     4
##  7 brownem~   2000     1 PIT    NL       50   119    13    26     5     0     3
##  8 chrisja~   2000     1 PIT    NL       44     0     0     0     0     0     0
##  9 clontbr~   2000     1 PIT    NL        5     0     1     0     0     0     0
## 10 cordewi~   2000     1 PIT    NL       89   348    46    98    24     3    16
## # ... with 36 more rows, and 10 more variables: RBI <int>, SB <int>, CS <int>,
## #   BB <int>, SO <int>, IBB <int>, HBP <int>, SH <int>, SF <int>, GIDP <int>

dplyr

arrange() - reorder rows

#reorder by teamID
arrange(Batting, teamID)

## # A tibble: 105,861 x 22
##    playerID yearID stint teamID lgID      G    AB     R     H   X2B   X3B    HR
##    <chr>     <int> <int> <fct>  <fct> <int> <int> <int> <int> <int> <int> <int>
##  1 berrych~   1884     1 ALT    UA        7    25     2     6     0     0     0
##  2 brownji~   1884     1 ALT    UA       21    88    12    22     2     2     1
##  3 carropa~   1884     1 ALT    UA       11    49     4    13     1     0     0
##  4 connojo~   1884     1 ALT    UA        3    11     0     1     0     0     0
##  5 crosscl~   1884     1 ALT    UA        2     7     1     4     1     0     0
##  6 daisege~   1884     1 ALT    UA        1     4     0     0     0     0     0
##  7 doughch~   1884     1 ALT    UA       23    85     6    22     5     0     0
##  8 gradyjo~   1884     1 ALT    UA        9    36     5    11     3     0     0
##  9 harrifr~   1884     1 ALT    UA       24    95    10    25     2     1     0
## 10 koonsha~   1884     1 ALT    UA       21    78     8    18     2     1     0
## # ... with 105,851 more rows, and 10 more variables: RBI <int>, SB <int>,
## #   CS <int>, BB <int>, SO <int>, IBB <int>, HBP <int>, SH <int>, SF <int>,
## #   GIDP <int>

dplyr

arrange() - reorder rows

#get secondary arrangement as well
arrange(Batting, teamID, G)

## # A tibble: 105,861 x 22
##    playerID yearID stint teamID lgID      G    AB     R     H   X2B   X3B    HR
##    <chr>     <int> <int> <fct>  <fct> <int> <int> <int> <int> <int> <int> <int>
##  1 daisege~   1884     1 ALT    UA        1     4     0     0     0     0     0
##  2 crosscl~   1884     1 ALT    UA        2     7     1     4     1     0     0
##  3 manloch~   1884     1 ALT    UA        2     7     1     3     0     0     0
##  4 connojo~   1884     1 ALT    UA        3    11     0     1     0     0     0
##  5 shafff01   1884     1 ALT    UA        6    19     1     3     0     0     0
##  6 berrych~   1884     1 ALT    UA        7    25     2     6     0     0     0
##  7 noftsge~   1884     1 ALT    UA        7    25     0     1     0     0     0
##  8 learyja~   1884     1 ALT    UA        8    33     1     3     0     0     0
##  9 gradyjo~   1884     1 ALT    UA        9    36     5    11     3     0     0
## 10 carropa~   1884     1 ALT    UA       11    49     4    13     1     0     0
## # ... with 105,851 more rows, and 10 more variables: RBI <int>, SB <int>,
## #   CS <int>, BB <int>, SO <int>, IBB <int>, HBP <int>, SH <int>, SF <int>,
## #   GIDP <int>

dplyr

arrange() - reorder rows

#descending instead
arrange(Batting, teamID, desc(G))

## # A tibble: 105,861 x 22
##    playerID yearID stint teamID lgID      G    AB     R     H   X2B   X3B    HR
##    <chr>     <int> <int> <fct>  <fct> <int> <int> <int> <int> <int> <int> <int>
##  1 smithge~   1884     1 ALT    UA       25   108     9    34     8     1     0
##  2 harrifr~   1884     1 ALT    UA       24    95    10    25     2     1     0
##  3 doughch~   1884     1 ALT    UA       23    85     6    22     5     0     0
##  4 murphjo~   1884     1 ALT    UA       23    94    10    14     1     0     0
##  5 brownji~   1884     1 ALT    UA       21    88    12    22     2     2     1
##  6 koonsha~   1884     1 ALT    UA       21    78     8    18     2     1     0
##  7 mooreje~   1884     1 ALT    UA       20    80    10    25     3     1     1
##  8 shaffta~   1884     1 ALT    UA       13    55    10    18     2     0     0
##  9 carropa~   1884     1 ALT    UA       11    49     4    13     1     0     0
## 10 gradyjo~   1884     1 ALT    UA        9    36     5    11     3     0     0
## # ... with 105,851 more rows, and 10 more variables: RBI <int>, SB <int>,
## #   CS <int>, BB <int>, SO <int>, IBB <int>, HBP <int>, SH <int>, SF <int>,
## #   GIDP <int>
…
dplyr

select() - subset columns

Often only want select variables (saw $ and [ , ])

select() function has same syntax as other dplyr functions!

#Choose a single column by name
select(Batting, X2B)

## # A tibble: 105,861 x 1
##      X2B
##    <int>
##  1     0
##  2     6
##  3     4
##  4    10
##  5    11
##  6     2
##  7     0
##  8    10
##  9     1
## 10     2
## # ... with 105,851 more rows

dplyr

select() - subset columns

Often only want select variables (saw $ and [ , ])

select() function has same syntax as other dplyr functions!

#Choose a single column by name
select(Batting, playerID, X2B)

## # A tibble: 105,861 x 2
##    playerID    X2B
##    <chr>     <int>
##  1 abercda01     0
##  2 addybo01      6
##  3 allisar01     4
##  4 allisdo01    10
##  5 ansonca01    11
##  6 armstbo01     2
##  7 barkeal01     0
##  8 barnero01    10
##  9 barrebi01     1
## 10 barrofr01     2
## # ... with 105,851 more rows

Aside: Piping or Chaining

Applying multiple functions: nesting hard to parse!

Piping or Chaining with %>% operator helps

arrange(select(filter(Batting, teamID == "PIT"), playerID, G, X2B), desc(X2B))

## # A tibble: 4,817 x 3
##    playerID      G   X2B
##    <chr>     <int> <int>
##  1 wanerpa01   154    62
##  2 wanerpa01   148    53
##  3 sanchfr01   157    53
##  4 wanerpa01   152    50
##  5 comorad01   152    47
##  6 mclouna01   152    46
##  7 wagneho01   135    45
##  8 parkeda01   158    45
##  9 vanslan01   154    45
## 10 wagneho01   132    44
## # ... with 4,807 more rows

Aside: Piping or Chaining

Applying multiple functions: nesting hard to parse!

Piping or Chaining with %>% operator helps

Batting %>% filter(teamID == "PIT") %>% select(playerID, G, X2B) %>% arrange(desc(X2B)) 

## # A tibble: 4,817 x 3
##    playerID      G   X2B
##    <chr>     <int> <int>
##  1 wanerpa01   154    62
##  2 wanerpa01   148    53
##  3 sanchfr01   157    53
##  4 wanerpa01   152    50
##  5 comorad01   152    47
##  6 mclouna01   152    46
##  7 wagneho01   135    45
##  8 parkeda01   158    45
##  9 vanslan01   154    45
## 10 wagneho01   132    44
## # ... with 4,807 more rows
…
x %>% f(y) %>% g(z) turns into g(f(x, y), z)

Can be used with functions outside the tidyverse if this structure works!

dplyr

select() - subset columns

Many ways to select variables

#all columns between
Batting %>% select(X2B:HR)

## # A tibble: 105,861 x 3
##      X2B   X3B    HR
##    <int> <int> <int>
##  1     0     0     0
##  2     6     0     0
##  3     4     5     0
##  4    10     2     2
##  5    11     3     0
##  6     2     1     0
##  7     0     0     0
##  8    10     9     0
##  9     1     0     0
## 10     2     1     0
## # ... with 105,851 more rows

dplyr

select() - subset columns

Many ways to select variables

#all columns containing
Batting %>% select(contains("X"))

## # A tibble: 105,861 x 2
##      X2B   X3B
##    <int> <int>
##  1     0     0
##  2     6     0
##  3     4     5
##  4    10     2
##  5    11     3
##  6     2     1
##  7     0     0
##  8    10     9
##  9     1     0
## 10     2     1
## # ... with 105,851 more rows

dplyr

select() - subset columns

Many ways to select variables

#all columns starting with
Batting %>% select(starts_with("X"))

## # A tibble: 105,861 x 2
##      X2B   X3B
##    <int> <int>
##  1     0     0
##  2     6     0
##  3     4     5
##  4    10     2
##  5    11     3
##  6     2     1
##  7     0     0
##  8    10     9
##  9     1     0
## 10     2     1
## # ... with 105,851 more rows

dplyr

select() - subset columns

Many ways to select variables

#multiple selections
Batting %>% select(starts_with("X"), ends_with("ID"), G)

## # A tibble: 105,861 x 7
##      X2B   X3B playerID  yearID teamID lgID      G
##    <int> <int> <chr>      <int> <fct>  <fct> <int>
##  1     0     0 abercda01   1871 TRO    NA        1
##  2     6     0 addybo01    1871 RC1    NA       25
##  3     4     5 allisar01   1871 CL1    NA       29
##  4    10     2 allisdo01   1871 WS3    NA       27
##  5    11     3 ansonca01   1871 RC1    NA       25
##  6     2     1 armstbo01   1871 FW1    NA       12
##  7     0     0 barkeal01   1871 RC1    NA        1
##  8    10     9 barnero01   1871 BS1    NA       31
##  9     1     0 barrebi01   1871 FW1    NA        1
## 10     2     1 barrofr01   1871 BS1    NA       18
## # ... with 105,851 more rows

dplyr

select() - subset columns

Sometimes want to rename variables

#rename our previous
Batting %>% 
  select(starts_with("X"), ends_with("ID"), G) %>% rename("Doubles" = X2B, "Triples" = X3B)

## # A tibble: 105,861 x 7
##    Doubles Triples playerID  yearID teamID lgID      G
##      <int>   <int> <chr>      <int> <fct>  <fct> <int>
##  1       0       0 abercda01   1871 TRO    NA        1
##  2       6       0 addybo01    1871 RC1    NA       25
##  3       4       5 allisar01   1871 CL1    NA       29
##  4      10       2 allisdo01   1871 WS3    NA       27
##  5      11       3 ansonca01   1871 RC1    NA       25
##  6       2       1 armstbo01   1871 FW1    NA       12
##  7       0       0 barkeal01   1871 RC1    NA        1
##  8      10       9 barnero01   1871 BS1    NA       31
##  9       1       0 barrebi01   1871 FW1    NA        1
## 10       2       1 barrofr01   1871 BS1    NA       18
## # ... with 105,851 more rows

dplyr

select() - subset columns

May want to reorder variables

#reorder
Batting %>% select(playerID, HR, everything())

## # A tibble: 105,861 x 22
##    playerID    HR yearID stint teamID lgID      G    AB     R     H   X2B   X3B
##    <chr>    <int>  <int> <int> <fct>  <fct> <int> <int> <int> <int> <int> <int>
##  1 abercda~     0   1871     1 TRO    NA        1     4     0     0     0     0
##  2 addybo01     0   1871     1 RC1    NA       25   118    30    32     6     0
##  3 allisar~     0   1871     1 CL1    NA       29   137    28    40     4     5
##  4 allisdo~     2   1871     1 WS3    NA       27   133    28    44    10     2
##  5 ansonca~     0   1871     1 RC1    NA       25   120    29    39    11     3
##  6 armstbo~     0   1871     1 FW1    NA       12    49     9    11     2     1
##  7 barkeal~     0   1871     1 RC1    NA        1     4     0     1     0     0
##  8 barnero~     0   1871     1 BS1    NA       31   157    66    63    10     9
##  9 barrebi~     0   1871     1 FW1    NA        1     5     1     1     1     0
## 10 barrofr~     0   1871     1 BS1    NA       18    86    13    13     2     1
## # ... with 105,851 more rows, and 10 more variables: RBI <int>, SB <int>,
## #   CS <int>, BB <int>, SO <int>, IBB <int>, HBP <int>, SH <int>, SF <int>,
## #   GIDP <int>
…
