Chapter 2 Sampling Schemes and Experimental Design | Statistical Methods
…
After seeing this summary, it looks like there may have been a typo. The decision was made to combine the one student that had a RaceEth value of two or More Races with students with the value Two or More Races.

seniorData$RaceEth[seniorData$RaceEth == "two or More Races"] <- "Two or More Races"

The data was then sorted by the blocking variables.

seniorData <- seniorData %>% arrange(College, Gender, RaceEth)

Next, each EU in a block (combination of College, EthRace, and Gender) would be randomly allocated to treatment 1, 2, or 3, corresponding to the email types. The number of EUs in each block was found using the group_by and summarise functions from the dplyr package (covered in chapter 3).

counts <- seniorData %>% group_by(College, Gender, RaceEth) %>% summarise(n = n()) 
counts

## # A tibble: 139 x 4
## # Groups:   College, Gender [20]
##   College Gender RaceEth                       n
##   <chr>   <chr>  <chr>                     <int>
## 1 CALS    F      Asian                        30
## 2 CALS    F      Black or African American    17
## 3 CALS    F      Hispanics of Any Race        18
## 4 CALS    F      NRA                           7
## 5 CALS    F      Two or More Races            15
## # ... with 134 more rows
…
