Chapter 3 Summarizing Data | Statistical Methods
…
To create numerical summaries in R, you first need to determine the type of data you have. Remember there are two major categories:

Categorical (Qualitative) variable - entries are a label or attribute

Numerical (Quantitative) variable - entries are a numerical value where math can be performed

The main goal is to describe the distribution or pattern and frequency with which you observe the variable. For categorical variables, we used contingency tables to describe the count in each category. In R, this is done using the table function.

We’ll recreate the summaries of the titanic dataset (available in the file titanic.csv in the datasets folder or via the web).

titanicData <- read_csv("https://www4.stat.ncsu.edu/~online/datasets/titanic.csv")
titanicData

## # A tibble: 1,310 x 14
##   pclass survived name  sex      age sibsp parch ticket  fare cabin embarked
##    <dbl>    <dbl> <chr> <chr>  <dbl> <dbl> <dbl> <chr>  <dbl> <chr> <chr>   
## 1      1        1 Alle~ fema~ 29         0     0 24160   211. B5    S       
## 2      1        1 Alli~ male   0.917     1     2 113781  152. C22 ~ S       
## 3      1        0 Alli~ fema~  2         1     2 113781  152. C22 ~ S       
## 4      1        0 Alli~ male  30         1     2 113781  152. C22 ~ S       
## 5      1        0 Alli~ fema~ 25         1     2 113781  152. C22 ~ S       
## # ... with 1,305 more rows, and 3 more variables: boat <chr>, body <dbl>,
## #   home.dest <chr>
…
For numerical variables, recall that we want to describe the shape, center, and spread of the variable’s distribution.

Recall the carbon dioxide (CO2) uptake data set

Response recorded: uptake CO2 uptake rates in grass plants

Environment manipulated: Treatment - chilled/nonchilled

Ambient CO2 specified and measured: conc

CO2 <- tbl_df(CO2)
CO2

## # A tibble: 84 x 5
##   Plant Type   Treatment   conc uptake
##   <ord> <fct>  <fct>      <dbl>  <dbl>
## 1 Qn1   Quebec nonchilled    95   16  
## 2 Qn1   Quebec nonchilled   175   30.4
## 3 Qn1   Quebec nonchilled   250   34.8
## 4 Qn1   Quebec nonchilled   350   37.2
## 5 Qn1   Quebec nonchilled   500   35.3
## # ... with 79 more rows
…
To visualize a three-way table, we essentially want to recreate this plot for each setting of the third variable. This is a little difficult in Base R and will be taken up in the ggplot section.

Next we’ll create common plots for numerical variables (variables in which entries are a numerical value where math can be performed). Recall that the main goal of summarizing numerical variables is to describe the shape, center, and spread of the distribution. Generally, this is done using a histogram, boxplot, or, in the case of two numerical variables, scatterplot.

The general process for creating these plots using Base R:

Use hist, boxpot, plot, etc. to start a plot

Annotate the plot using functions like text, lines, points, etc.

We’ll again look at the carbon dioxide (CO2) uptake data set.

## # A tibble: 84 x 5
##   Plant Type   Treatment   conc uptake
##   <ord> <fct>  <fct>      <dbl>  <dbl>
## 1 Qn1   Quebec nonchilled    95   16  
## 2 Qn1   Quebec nonchilled   175   30.4
## 3 Qn1   Quebec nonchilled   250   34.8
## 4 Qn1   Quebec nonchilled   350   37.2
## 5 Qn1   Quebec nonchilled   500   35.3
## # ... with 79 more rows
…
To change the plotting symbol (or color, etc.) based on another variable, create appropriate vectors that match the length of the data. For instance, we can create a symbol column on our data frame that is 3 if the Treatment is ‘chilled’ and 2 if not. This symbol column is of course the same length as the data. If we pass the pch argument symbol, plot will assign the plotting character 3 to chilled observations and 2 if not.

CO2$symbol <- ifelse(CO2$Treatment == "chilled", 3, 2)
select(CO2, uptake, Treatment, symbol)

## # A tibble: 84 x 3
##   uptake Treatment  symbol
##    <dbl> <fct>       <dbl>
## 1   16   nonchilled      2
## 2   30.4 nonchilled      2
## 3   34.8 nonchilled      2
## 4   37.2 nonchilled      2
## 5   35.3 nonchilled      2
## # ... with 79 more rows
…
